100507436
10068
10344
10392
10747
1080
11213
114548
115201
115352
120892
1236
1294
1401
140596
1432
1436
1437
149233
1493
1513
1524
159296
1672
1673
170679
1755
1813
1893
19
197358
2147
2153
2162
219771
2214
22861
22900
22914
23274
2335
248
2524
26191
2693
2833
30061
30835
3107
3123
3135
3178
3290
3291
3304
337
3383
345611
3458
3479
3486
355
3553
3563
3565
3569
3576
3586
3593
3596
3604
3606
3620
3651
3682
3683
3689
3690
3780
3803
3804
3836
3845
3929
396
4049
4057
4153
4210
4283
4292
4312
4314
4436
4485
4524
4552
4650
4689
4792
4908
50616
50802
50941
51311
51738
5243
54106
5444
55054
55600
56244
5743
5771
5788
58191
5872
59067
5919
595
602
6275
6283
6352
6356
6369
64127
6556
6583
6584
6696
671
6755
6774
6775
6778
6868
6934
6955
6957
7033
7040
7076
7078
7082
7097
7099
7100
7124
7132
7133
7157
7291
7297
7332
7408
7422
7433
7454
80209
8174
842
8547
8600
864
8740
8856
8927
8929
89781
9051
90865
9231
929
9308
942
9436
9437
958
9618
9966
999
