100133941
10019
100507436
1045
10461
10553
10563
10666
10673
11026
1116
1118
11240
112744
11315
1152
116379
116448
1230
1234
1236
1267
1268
1269
1270
1380
1401
1410
149233
1493
1524
156
1594
163059
1636
1675
183
1879
2
2150
219793
2212
2213
2214
2215
2262
22914
23046
23095
23114
23274
23621
2551
2571
25801
2597
26191
2672
27189
2739
2833
28394
285362
28613
2896
2908
29126
2944
29851
3002
3028
3060
3077
3105
3106
3107
3115
3117
3119
3122
3123
3127
3135
3146
3162
329
330
3308
331
335
3383
3385
3394
3429
3451
3456
3458
348
355
3553
3557
3558
3559
356
3560
3566
3568
3569
3570
3575
3576
3579
3586
3592
3593
3596
3603
3605
3606
361
3620
3627
3659
3663
3672
3676
3738
3783
3798
3831
388650
3925
3952
3953
3976
4001
406952
406982
4092
410
4137
4155
4157
4179
4210
4249
4261
4277
4282
4314
4317
4318
4321
4340
4353
4359
442900
4485
4486
4508
4509
4524
4535
4540
4567
4582
4599
4650
4671
4747
4780
4790
4803
4843
4851
4856
4879
4907
4915
4938
4982
5054
50615
5071
50943
5133
51561
5175
5243
5327
5354
5409
54106
54209
5444
54739
55157
55254
5550
55504
5551
558
5621
56244
5646
5653
57142
5724
5777
5788
5790
5816
5819
590
59067
59272
5970
598
6000
6125
623
627
6311
6334
6347
6352
6367
6376
6387
6404
64127
64135
64386
6469
6489
6505
6506
6507
653361
6556
6647
6648
6696
6774
6868
6888
6900
7040
7086
7097
7098
7099
7124
7132
7133
7167
7172
7177
718
720
729230
7293
7297
730
7305
7351
7410
7421
7434
7813
79258
794
7941
8099
8224
8290
847
84868
84894
8600
8645
8743
8744
8809
8893
8927
90134
909
913
914
920
923
9241
929
9370
940
941
9429
9474
9481
953
9563
958
959
961
965
