10062
10135
10165
1019
1029
1050
1051
1052
1066
1071
10874
10886
10891
109
10999
11035
11132
11145
11254
11255
1135
1147
114897
114899
1149
116519
1208
1268
128674
129787
1312
133
133522
139760
1401
145264
1471
148713
1490
150
150379
1513
151887
1520
1524
153
154
155
156
1573
1588
1636
165
1728
1803
181
1813
19
1906
197
200186
2099
2100
2157
2166
2167
2169
2194
2222
2260
23017
2303
23038
23175
23216
23327
23411
239
246
255239
2555
2572
2587
25970
25975
26253
26291
2638
2641
2645
2646
2660
2673
2678
2688
2693
2695
2696
270
2701
27329
2760
2776
2778
2784
2805
2834
2847
2852
285848
2875
2896
2908
29106
2997
3060
3082
3087
3091
3098
3240
3290
3291
3292
3304
335
3356
3358
336
3362
337
3375
338
3383
341
345
3479
348
3480
3481
3485
3486
3489
351
3552
3553
3557
3569
3572
3576
3586
3600
3606
3625
3630
364
3640
3643
366
3667
367
3687
3689
3767
3929
3934
3952
3953
3958
3990
3991
4000
4023
4041
4094
4128
4159
4160
4217
4282
4313
4314
4323
4524
4547
4548
4552
467
4780
4826
4828
4846
4852
4864
4879
4887
4915
4973
4982
4988
5020
5054
50848
5105
51083
51094
51129
51141
5122
5167
5168
51738
5176
5214
5241
5243
5245
5313
5346
5367
54
5409
5443
5444
54476
5465
5467
5468
55149
55600
5562
55816
5594
5599
5617
56259
563
56729
5697
57104
5726
5770
57761
57817
585
5914
5919
59286
5950
60675
6095
627
6272
6279
6280
6288
6289
6296
6311
6319
632
6347
6357
6374
6401
6403
64102
6441
6447
6462
64784
6492
65018
6517
6531
6532
6564
6566
657
66036
6648
6678
6696
6720
6752
6774
6860
6868
6927
6934
7040
7097
7099
7124
7132
7133
718
7253
726
7275
7276
728441
7291
7350
7351
7352
7376
7412
7421
7442
7494
7840
79068
7916
79191
79602
79689
79827
80339
80781
81029
81788
8195
8228
825
8431
84539
84649
84691
8609
8660
8694
8742
8764
8788
8862
9021
9122
9317
9369
9370
9516
9575
9607
9672
9722
9927
9965
