11262
4233
56913
27067
100128126
58513
160365
4210
23095
101927237
3075
80762
120227
4938
8740
9481
285627
55892
1620
55876
8320
54806
923
4340
8893
3553
214
7421
148867
27151
6239
7813
1594
23274
30820
64208
154442
965
126859
2135
60468
6302
116986
115701
57178
7092
389170
23321
54798
694
3559
647946
8821
5996
640
9639
8224
440836
344148
129831
3676
29951
3689
3109
101927003
64478
4852
55357
4599
116379
7532
5649
10461
6556
143187
9563
117289
64084
6456
3552
23078
401474
3123
10198
3077
7124
7132
541472
3569
6387
675
84811
6198
3925
8890
54106
958
6840
64135
10102
841
387978
80224
3117
90134
3558
177
6048
629
4982
6941
56244
7520
158358
2315
3592
101928376
1591
942
101926934
115352
5594
4126
6774
51300
10538
27120
7297
1493
6891
57727
26191
23409
285830
3134
11274
636
9887
4179
199
80736
1576
10301
284358
5027
2078
5125
89870
40
10665
10866
6850
1823
9520
204801
51752
10055
10211
3122
8449
170679
253018
1041
4855
3557
4150
79970
5034
1524
56829
101928464
5551
7410
6992
10255
3128
4094
642636
10636
116028
6565
348
84456
5820
121278
339788
1312
6444
7726
2739
3820
4261
10919
2902
677
7156
1116
4249
22898
7099
6041
55732
6401
2908
627
84991
5724
140685
6403
10062
497258
643
717
5444
284677
57822
6336
3575
3482
55501
706
50807
4234
4601
10892
199692
57531
8503
55765
7057
6932
135644
5341
10666
152225
4854
80381
56975
285362
2530
6647
5796
57478
9755
404093
11140
164656
3831
84769
11074
9047
10107
6794
101927027
8575
79925
4602
2309
2262
868
4089
23228
285195
79068
